Part 2 - Introduction to the Tidyverse
…
# Select, <span style="color:#6DA34D">create</span>, and rename variables 

- `transmute()` = `mutate()` + `select()`
- Keep unmanipulated variables too if you would like

```r
climate %>% 
  transmute(
    country
    , city
    , high_uncertainty = ifelse(uncertainty > 1.5, 1, 0)
    , winter = ifelse(month %in% c(1, 2, 12), 1, 0)
    )
## # A tibble: 239,177 × 4
##    country     city    high_uncertainty winter
##    <chr>       <chr>              <dbl>  <dbl>
##  1 Ivory Coast Abidjan                0      1
##  2 Ivory Coast Abidjan                0      1
##  3 Ivory Coast Abidjan                1      0
##  4 Ivory Coast Abidjan                0      0
##  5 Ivory Coast Abidjan                0      0
##  6 Ivory Coast Abidjan                0      0
##  7 Ivory Coast Abidjan                0      0
##  8 Ivory Coast Abidjan                0      0
##  9 Ivory Coast Abidjan                0      0
## 10 Ivory Coast Abidjan                0      0
## # … with 239,167 more rows
```
